%YAML 1.1
%TAG !u! tag:unity3d.com,2011:
--- !u!21 &2100000
Material:
  serializedVersion: 5
  m_ObjectHideFlags: 0
  m_PrefabParentObject: {fileID: 0}
  m_PrefabInternal: {fileID: 0}
  m_Name: Mask
  m_Shader: {fileID: 4800000, guid: d11973483008cf24ca2adbdbebf3df80, type: 3}
  m_ShaderKeywords: 
  m_LightmapFlags: 5
  m_CustomRenderQueue: -1
  m_SavedProperties:
    serializedVersion: 2
    m_TexEnvs:
      data:
        first:
          name: _MainTex
        second:
          m_Texture: {fileID: 0}
          m_Scale: {x: 1, y: 1}
          m_Offset: {x: 0, y: 0}
      data:
        first:
          name: _MaskTex
        second:
          m_Texture: {fileID: 2800000, guid: 1e7ce78309d6229449b48df0e3c14880, type: 3}
          m_Scale: {x: 1, y: 1}
          m_Offset: {x: 0, y: 0}
    m_Floats:
      data:
        first:
          name: _Stencil
        second: 0
      data:
        first:
          name: _StencilComp
        second: 8
      data:
        first:
          name: _StencilOp
        second: 0
      data:
        first:
          name: _StencilReadMask
        second: 255
      data:
        first:
          name: _StencilWriteMask
        second: 255
      data:
        first:
          name: _ColorMask
        second: 15
    m_Colors:
      data:
        first:
          name: _Color
        second: {r: 1, g: 1, b: 1, a: 1}
